\relax 
\@writefile{toc}{\contentsline {section}{\numberline {1}Introduction}{2}}
\@writefile{toc}{\contentsline {section}{\numberline {2}Interaction}{2}}
\@writefile{toc}{\contentsline {subsection}{\numberline {2.1}Website}{2}}
\@writefile{lof}{\contentsline {figure}{\numberline {1}{\ignorespaces Website.}}{2}}
\newlabel{website}{{1}{2}}
\@writefile{lof}{\contentsline {figure}{\numberline {2}{\ignorespaces Website.}}{3}}
\newlabel{website_val}{{2}{3}}
\@writefile{toc}{\contentsline {subsection}{\numberline {2.2}Api}{3}}
\@writefile{toc}{\contentsline {section}{\numberline {3}Api packets}{4}}
\@writefile{toc}{\contentsline {section}{\numberline {4}Technicals}{6}}
\@writefile{toc}{\contentsline {section}{\numberline {5}Code}{6}}
