\contentsline {section}{\numberline {1}Introduction}{2}
\contentsline {section}{\numberline {2}Interaction}{2}
\contentsline {subsection}{\numberline {2.1}Website}{2}
\contentsline {subsection}{\numberline {2.2}Api}{3}
\contentsline {section}{\numberline {3}Api packets}{4}
\contentsline {section}{\numberline {4}Technicals}{6}
\contentsline {section}{\numberline {5}Code}{6}
