{
  "guesses": [
        "the quick brown fox jumped over the lazy dog",
        "first titles won by two speakers the english language can be quite complex it can be understood through tough thorough thought and",
        "dearest creature in creation study english pronunciation i will teach you in my first dah sound like corpse corps horse and worse i will keep you suzy busy make your head with heat grow dizzy tear in eye your dress will tear so shall i oh hear my prayer"
  ]
}
